lectures/l10_exercises_rca_cla_mults/dump.vcd
$date
	Mon Oct 28 15:16:53 2019
$end
$version
	Icarus Verilog
$end
$timescale
	1ps
$end
$scope module add_shft_mul_tb $end
$var wire 1 ! done $end
$var wire 16 " c [15:0] $end
$var reg 8 # a [7:0] $end
$var reg 8 $ b [7:0] $end
$var reg 1 % clk $end
$var reg 1 & rst $end
$var reg 1 ' start $end
$scope module mult0 $end
$var wire 8 ( a [7:0] $end
$var wire 8 ) b [7:0] $end
$var wire 1 % clk $end
$var wire 1 & rst $end
$var wire 1 ' start $end
$var wire 1 ! done $end
$var reg 16 * c [15:0] $end
$var reg 4 + counter [3:0] $end
$upscope $end
$upscope $end
$enddefinitions $end
#0
$dumpvars
b1000 +
b0 *
b1000001 )
b1100100 (
0'
1&
1%
b1000001 $
b1100100 #
b0 "
1!
$end
#10000
0%
#20000
1%
#21000
0&
#30000
0%
#40000
1%
#41000
1'
#50000
0%
#60000
0!
b0 +
1%
#61000
0'
#70000
0%
#80000
b1 +
b11001000000000 "
b11001000000000 *
1%
#90000
0%
#100000
b1100100000000 "
b1100100000000 *
b10 +
1%
#110000
0%
#120000
b11 +
b110010000000 "
b110010000000 *
1%
#130000
0%
#140000
b11001000000 "
b11001000000 *
b100 +
1%
#150000
0%
#160000
b101 +
b1100100000 "
b1100100000 *
1%
#170000
0%
#180000
b110010000 "
b110010000 *
b110 +
1%
#190000
0%
#200000
b111 +
b11001011001000 "
b11001011001000 *
1%
#210000
0%
#220000
b1100101100100 "
b1100101100100 *
1!
b1000 +
1%
